A20,-33.8861,151.18627
A14,-33.88593,151.18878
M02C,-33.888502,151.177553
A22,-33.886765,151.186265
G12,-33.891817,151.191785
J01,-33.890677,151.192764
J09,-33.888519,151.193601
A36,-33.88711,151.186721
F11,-33.888152,151.189564
F07,-33.888497,151.190661
A12,-33.885244,151.18803
J13,-33.889702,151.193939
J03,-33.889448,151.193335
H03,-33.890946,151.189556
F19,-33.888143,151.19031
A11,-33.885193,151.187775
C39,-33.88936,151.183
H02,-33.891403,151.189135
M02B,-33.888419,151.177843
M02D,-33.88827,151.177459
J07,-33.889143,151.194269
F09,-33.888691,151.189468
H03A,-33.891276,151.189511
J11,-33.888724,151.194403
F04,-33.88673,151.19045
A26,-33.887489,151.188518
G04,-33.88877,151.19223
A15,-33.885781,151.18788
A19,-33.886311,151.187333
C43B,-33.88132,151.04828
C43E,-33.88245,151.04965
C43R,-33.88178,151.04865
C43T,-33.88036,151.04876
C43M,-33.88244,151.04756
C43S,-33.88246,151.04843
C43L,-33.88203,151.0483
C43F,-33.88161,151.04906
F13,-33.887172,151.189213
B19,-33.886547,151.183827
C43H,-33.88283,151.0487
C43K,-33.88274,151.04949
A09,-33.8853,151.187182
C41,-33.86342,151.21437
J12,-33.888221,151.194049
D05,-33.88966,151.1846
C43N,-33.88286,151.04782
F10A,-33.887611,151.190262
B01,-33.885814,151.184103
C01A,-34.031761,150.65714
C01G,-34.032674,150.656749
C01E,-34.032279,150.656902
A35,-33.886845,151.187153
A27,-33.888214,151.188625
C81,-33.89627,151.19589
H04,-33.890517,151.190318
C43J,-33.88213,151.04752
H10,-33.891111,151.189771
C44,-34.017567,150.667939
D02,-33.88867,151.18547
G08,-33.89028,151.19117
A16,-33.885741,151.187249
C08L,-34.03022,150.65903
C30L,-34.01806,150.66609
M02F,-33.888819,151.178023
M02G,-33.889171,151.177843
C04B,-34.035651,150.65334
C55C,-34.03201,150.655212
C01F,-34.032688,150.657173
C30G,-34.01646,150.66585
G01,-33.88952,151.19077
C02F,-34.03288,150.65815
H70,-33.892066,151.1912404
B22,-33.886204,151.183787
D17,-33.887444,151.183635
H01,-33.89152,151.188672
K25,-33.885361,151.18003
A31,-33.8883972,151.1873694
C13B,-33.871575,151.209129
E18A,-34.064857,150.652669
E20A,-33.941954,150.670423
E23A,-33.95109,150.68311
E19A,-33.99449,150.65491
